…
``` r
library(rvest)
library(curlparse)
library(tidyverse)
```

``` r
read_html("https://www.r-bloggers.com/blogs-list/") %>% 
  html_nodes(xpath=".//li[contains(., 'Contributing Blogs')]/ul/li/a[contains(@href, 'http')]") %>% 
  html_attr("href") -> blog_urls
```

``` r
(parsed <- parse_curl(blog_urls))
## # A tibble: 794 x 9
##    scheme user  password host                    port  path            options query fragment
##    <chr>  <chr> <chr>    <chr>                   <chr> <chr>           <chr>   <chr> <chr>   
##  1 http   <NA>  <NA>     dmlc.ml                 80    /               <NA>    <NA>  <NA>    
##  2 https  <NA>  <NA>     lionel-.github.io       443   /               <NA>    <NA>  <NA>    
##  3 https  <NA>  <NA>     jean9208.github.io      443   /rss-R.xml      <NA>    <NA>  <NA>    
##  4 https  <NA>  <NA>     ryouready.wordpress.com 443   /               <NA>    <NA>  <NA>    
##  5 https  <NA>  <NA>     rveryday.wordpress.com  443   /               <NA>    <NA>  <NA>    
##  6 http   <NA>  <NA>     www.talyarkoni.org      80    /blog           <NA>    <NA>  <NA>    
##  7 https  <NA>  <NA>     rtricks.wordpress.com   443   /               <NA>    <NA>  <NA>    
##  8 http   <NA>  <NA>     mgritts.com             80    /feed.r.xml     <NA>    <NA>  <NA>    
##  9 http   <NA>  <NA>     blog.ambodi.com         80    /               <NA>    <NA>  <NA>    
## 10 https  <NA>  <NA>     xcafebabe.blogspot.com  443   /search/label/R <NA>    <NA>  <NA>    
## # ... with 784 more rows
…
(u_parsed <- parse_curl(ugly_urls))
## # A tibble: 32 x 9
##    scheme user  password host            port  path          options query fragment
##    <chr>  <chr> <chr>    <chr>           <chr> <chr>         <chr>   <chr> <chr>   
##  1 <NA>   <NA>  <NA>     <NA>            <NA>  <NA>          <NA>    <NA>  <NA>    
##  2 <NA>   <NA>  <NA>     <NA>            <NA>  <NA>          <NA>    <NA>  <NA>    
##  3 <NA>   <NA>  <NA>     <NA>            <NA>  <NA>          <NA>    <NA>  <NA>    
##  4 http   <NA>  <NA>     foo.com         80    /path         <NA>    <NA>  <NA>    
##  5 http   <NA>  <NA>     foo.com         80    /             <NA>    <NA>  <NA>    
##  6 <NA>   <NA>  <NA>     <NA>            <NA>  <NA>          <NA>    <NA>  <NA>    
##  7 <NA>   <NA>  <NA>     <NA>            <NA>  <NA>          <NA>    <NA>  <NA>    
##  8 http   user  pass     foo.com         80    /             <NA>    <NA>  <NA>    
##  9 file   <NA>  <NA>     <NA>            0     /tmp/junk.txt <NA>    <NA>  <NA>    
## 10 imap   <NA>  <NA>     mail.python.org 143   /mbox1        <NA>    <NA>  <NA>    
## # ... with 22 more rows
…
